…
```
## `summarise()` regrouping output by 'party' (override with `.groups` argument)
```

```
## # A tibble: 25 x 3
##    party                   `Candidate Vote` `Party Vote`
##    <chr>                              <dbl>        <dbl>
##  1 National Party                   1027696      1058636
##  2 Labour Party                      762897       614937
##  3 Green Party                       155492       247372
##  4 New Zealand First Party            39892       147544
##  5 Conservative Party                 51678        59237
##  6 Maori Party                        39320        31982
##  7 Mana                               29872        24168
##  8 ACT New Zealand                    31001        23889
##  9 Informal Party Votes                  NA        19872
## 10 United Future                      18792        13443
## # ... with 15 more rows
```
…
```
## `summarise()` ungrouping output (override with `.groups` argument)
```

```
## # A tibble: 395 x 2
##    voting_place                                                                      total_votes
##    <chr>                                                                                   <dbl>
##  1 Advance Voting Place - Mobile Team                                                        210
##  2 Ashburton Hospital & Rest Homes Team - Taken in Rangitata                                 310
##  3 Auckland Hospital Mobile & Advance Voting                                                 816
##  4 Central Mobile Team                                                                       212
##  5 Chatham Islands Council Building, 9 Tuku Road, Waitangi                                   230
##  6 Christchurch Mobile Voting Facility One, Central Christchurch and South City Mall         982
##  7 Defence Force Team, Powles Road                                                            94
##  8 Duvauchelle Community Centre, Main Road                                                   185
##  9 Herald Island Community Hall, 57 Ferry Parade                                             274
## 10 Hospital & Rest Homes - Team 1 - Taken in New Plymouth                                    643
## # ... with 385 more rows
```
…
