nzelect - convenient access to New Zealand election-related data
…
## The following objects are masked from 'package:base':
## 
##     intersect, setdiff, setequal, union

nzge %>%
    filter(election_year == 2011) %>%
    mutate(voting_type = paste0(voting_type, " Vote")) %>%
    group_by(party, voting_type) %>%
    summarise(votes = sum(votes)) %>%
    spread(voting_type, votes) %>%
    ungroup() %>%
    arrange(desc(`Party Vote`))

## # A tibble: 25 x 3
##    party                   `Candidate Vote` `Party Vote`
##    <chr>                              <dbl>        <dbl>
##  1 National Party                   1027696      1058636
##  2 Labour Party                      762897       614937
##  3 Green Party                       155492       247372
##  4 New Zealand First Party            39892       147544
##  5 Conservative Party                 51678        59237
##  6 Maori Party                        39320        31982
##  7 Mana                               29872        24168
##  8 ACT New Zealand                    31001        23889
##  9 Informal Party Votes                  NA        19872
## 10 United Future                      18792        13443
## # ... with 15 more rows
…
# what are some of those NA Regions?:
nzge %>%
    filter(voting_type == "Party" & election_year == 2017) %>%
    left_join(distinct_voting_places, by = c("voting_place_id")) %>%
    filter(is.na(REGC2014_N)) %>%
    group_by(voting_place) %>%
    summarise(total_votes = sum(votes))

## # A tibble: 395 x 2
##    voting_place                                                      total_votes
##    <chr>                                                                   <dbl>
##  1 Advance Voting Place - Mobile Team                                        210
##  2 Ashburton Hospital & Rest Homes Team - Taken in Rangitata                 310
##  3 Auckland Hospital Mobile & Advance Voting                                 816
##  4 Central Mobile Team                                                       212
##  5 Chatham Islands Council Building, 9 Tuku Road, Waitangi                   230
##  6 Christchurch Mobile Voting Facility One, Central Christchurch an~         982
##  7 Defence Force Team, Powles Road                                            94
##  8 Duvauchelle Community Centre, Main Road                                   185
##  9 Herald Island Community Hall, 57 Ferry Parade                             274
## 10 Hospital & Rest Homes - Team 1 - Taken in New Plymouth                    643
## # ... with 385 more rows
…
